HespDiv Walkthrough: Case of US Miocene Mammals
…
Once you load the “HDData” package using
library(HDData), you can use these datasets straight away.
Don’t forget to load the “hespdiv” package as well to access its
functions.

4. Performing HespDiv Analysis

library(HDData)
mio_mams

## # A tibble: 5,244 × 132
##    occurrence_no record_type reid_no flags collection_no identified_name        
##            <int> <chr>         <int> <lgl>         <int> <chr>                  
##  1        181183 occ            4262 NA            17444 Merycochoerus superbus 
##  2        181196 occ            4271 NA            17449 Merycochoerus superbus 
##  3        181198 occ              NA NA            17451 Gregorymys curtus      
##  4        181200 occ           30158 NA            17451 Leptocyon vulpinus     
##  5        181201 occ            4275 NA            17451 Paraenhydrocyon robust…
##  6        181202 occ            4276 NA            17451 Archaeohippus equinanus
##  7        181204 occ              NA NA            17451 Parahippus n. sp. pris…
##  8        181206 occ            4277 NA            17451 Merycochoerus superbus 
##  9        181207 occ            4278 NA            17451 Merycochoerus chelydra 
## 10        181208 occ            4279 NA            17451 Merycochoerus carrikeri
## # ℹ 5,234 more rows
## # ℹ 126 more variables: identified_rank <chr>, identified_no <int>,
## #   difference <chr>, accepted_name <chr>, accepted_attr <lgl>,
## #   accepted_rank <chr>, accepted_no <int>, early_interval <chr>,
## #   late_interval <chr>, max_ma <dbl>, min_ma <dbl>, ref_author <chr>,
## #   ref_pubyr <int>, reference_no <int>, phylum <chr>, class <chr>,
## #   order <chr>, family <chr>, genus <chr>, plant_organ <lgl>, …
…
